<svg width="42" height="42" viewBox="0 0 42 42" fill="none" xmlns="http://www.w3.org/2000/svg">
<path d="M39.702 2.14271H21.798V1.29799C21.798 0.576884 21.2211 0 20.5 0C19.7789 0 19.202 0.576884 19.202 1.29799V2.14271H1.29799C0.576884 2.14271 0 2.7196 0 3.4407V7.70553C0 8.42663 0.576884 9.00352 1.29799 9.00352H2.14271V31.193C2.14271 31.9141 2.7196 32.4909 3.4407 32.4909H17.9246L13.0623 38.9397C12.6296 39.5166 12.7533 40.3201 13.3301 40.7528C13.5568 40.9176 13.8452 41.0206 14.1131 41.0206C14.5045 41.0206 14.896 40.8352 15.1432 40.5055L19.2226 35.0663V39.7226C19.2226 40.4437 19.7995 41.0206 20.5206 41.0206C21.2417 41.0206 21.8186 40.4437 21.8186 39.7226V35.0663L25.898 40.5055C26.1452 40.8352 26.5367 41.0206 26.9281 41.0206C27.196 41.0206 27.4638 40.9382 27.7111 40.7528C28.2879 40.3201 28.391 39.5166 27.9789 38.9397L23.1372 32.4703H37.6211C38.3422 32.4703 38.9191 31.8935 38.9191 31.1724V8.98291H39.7638C40.4849 8.98291 41.0618 8.40603 41.0618 7.68492V3.4201C41 2.7196 40.4231 2.14271 39.702 2.14271ZM2.59598 6.40754V4.71809H38.4246V6.40754H2.59598ZM36.2819 29.8744H4.71809V8.98291H36.2819V29.8744Z" fill="#000084"/>
<path d="M9.82765 19.6553H29.0297C29.7508 19.6553 30.3277 19.0784 30.3277 18.3573C30.3277 17.6362 29.7508 17.0593 29.0297 17.0593H9.82765C9.10655 17.0593 8.52966 17.6362 8.52966 18.3573C8.52966 19.0784 9.10655 19.6553 9.82765 19.6553Z" fill="#000084"/>
<path d="M9.82765 15.3904H14.0925C14.8136 15.3904 15.3905 14.8136 15.3905 14.0925C15.3905 13.3713 14.8136 12.7945 14.0925 12.7945H9.82765C9.10655 12.7945 8.52966 13.3713 8.52966 14.0925C8.52966 14.8136 9.10655 15.3904 9.82765 15.3904Z" fill="#000084"/>
<path d="M9.82765 23.9201H22.6221C23.3432 23.9201 23.9201 23.3432 23.9201 22.6221C23.9201 21.901 23.3432 21.3241 22.6221 21.3241H9.82765C9.10655 21.3241 8.52966 21.901 8.52966 22.6221C8.52966 23.3432 9.10655 23.9201 9.82765 23.9201Z" fill="#000084"/>
</svg>
