<svg xmlns="http://www.w3.org/2000/svg" xmlns:xlink="http://www.w3.org/1999/xlink" width="307" height="160" viewBox="0 0 307 160">
  <defs>
    <linearGradient id="linear-gradient" x2="1" y2="1.019" gradientUnits="objectBoundingBox">
      <stop offset="0" stop-color="#76cd6c"/>
      <stop offset="1" stop-color="#4c9f42"/>
    </linearGradient>
  </defs>
  <g id="Group_71" data-name="Group 71" transform="translate(-13 -623)">
    <rect id="Rectangle_37" data-name="Rectangle 37" width="307" height="160" transform="translate(13 623)" fill="url(#linear-gradient)"/>
    <path id="Intersection_1" data-name="Intersection 1" d="M2928.493,159.239l-84.058-48.531a10.948,10.948,0,0,1-3.955-14.938l43.082-74.621a10.945,10.945,0,0,1,14.606-4.139l-7.352,12.733a12.008,12.008,0,0,0,4.423,16.411l6.576,3.8a12.07,12.07,0,0,0,16.484-4.34l7.377-12.779,29.637,17.111-7.377,12.779a12.07,12.07,0,0,0,4.485,16.447l6.575,3.8a12.019,12.019,0,0,0,7,1.581v31.518L2943.407,155.2a11,11,0,0,1-9.524,5.487A10.741,10.741,0,0,1,2928.493,159.239Zm-51.041-99.712L2855.2,98.072a4.71,4.71,0,0,0,1.724,6.434l70.518,40.714a4.711,4.711,0,0,0,6.435-1.724l22.253-38.545a4.71,4.71,0,0,0-1.724-6.434L2883.886,57.8a4.708,4.708,0,0,0-6.434,1.724Zm43.042,74.257-8.338-4.814a2.758,2.758,0,0,1-1.011-3.767l4.812-8.335a2.757,2.757,0,0,1,3.768-1.009l8.339,4.814a2.757,2.757,0,0,1,1.008,3.766l-4.812,8.335a2.756,2.756,0,0,1-3.766,1.01Zm-20.838-12.03-8.338-4.814a2.757,2.757,0,0,1-1.009-3.767l4.812-8.335a2.757,2.757,0,0,1,3.768-1.009l8.338,4.814a2.756,2.756,0,0,1,1.008,3.766l-4.812,8.335a2.756,2.756,0,0,1-3.766,1.011Zm32.866-8.806-8.338-4.814a2.757,2.757,0,0,1-1.01-3.767l4.813-8.337a2.758,2.758,0,0,1,3.767-1.008l8.338,4.814a2.757,2.757,0,0,1,1.01,3.766l-4.813,8.337a2.757,2.757,0,0,1-3.767,1.01Zm-53.7-3.225-8.337-4.814a2.757,2.757,0,0,1-1.009-3.766l4.812-8.335a2.758,2.758,0,0,1,3.767-1.01l8.338,4.814a2.757,2.757,0,0,1,1.01,3.767l-4.812,8.335a2.757,2.757,0,0,1-3.768,1.009Zm32.869-8.806-8.338-4.814a2.757,2.757,0,0,1-1.009-3.767L2907.152,84a2.757,2.757,0,0,1,3.766-1.008l8.339,4.814a2.756,2.756,0,0,1,1.009,3.765l-4.813,8.337a2.755,2.755,0,0,1-3.766,1.011Zm-20.839-12.031-8.337-4.813a2.757,2.757,0,0,1-1.009-3.767l4.813-8.337a2.756,2.756,0,0,1,3.766-1.008l8.338,4.813a2.758,2.758,0,0,1,1.011,3.766l-4.813,8.337a2.755,2.755,0,0,1-3.768,1.009Zm71.935-12.837-6.5-3.756a4.126,4.126,0,0,1-1.512-5.636L2966,47.2V76.437a4.119,4.119,0,0,1-3.217-.388Zm-57.123-32.98-6.5-3.756a4.125,4.125,0,0,1-1.513-5.636L2909.7,12.8a4.127,4.127,0,0,1,5.637-1.51l6.5,3.756a4.127,4.127,0,0,1,1.511,5.638L2911.3,41.561a4.126,4.126,0,0,1-5.638,1.508Z" transform="translate(-2646.01 622.317)" fill="rgba(255,255,255,0.16)"/>
  </g>
</svg>
